starter/sim/tests/j/streamwave.vcd
$date
	Sun Mar  4 22:25:36 2018
$end
$version
	Icarus Verilog
$end
$timescale
	1ps
$end
$scope module userlogic_test $end
$var wire 32 ! data_out [31:0] $end
$var wire 15 " input_buffer_addr [14:0] $end
$var wire 15 # output_buffer_addr [14:0] $end
$var wire 32 $ ul_instr [31:0] $end
$var wire 32 % ul_instr_addr [31:0] $end
$var wire 32 & ul_read_addr [31:0] $end
$var wire 32 ' ul_read_data [31:0] $end
$var wire 32 ( ul_status [31:0] $end
$var wire 32 ) ul_test [31:0] $end
$var wire 32 * ul_write_addr [31:0] $end
$var wire 32 + ul_write_data [31:0] $end
$var wire 16 , ul_write_data_hi [15:0] $end
$var wire 16 - ul_write_data_lo [15:0] $end
$var wire 2 . ul_write_en_hi [1:0] $end
$var wire 2 / ul_write_en_lo [1:0] $end
$var reg 1 0 clk $end
$var reg 32 1 cycle_count [32:1] $end
$var integer 32 2 dump_vars [31:0] $end
$var reg 8192 3 dump_vars_filename [8192:1] $end
$var integer 32 4 i [31:0] $end
$var reg 10 5 image_n_columns [9:0] $end
$var reg 10 6 image_n_rows [9:0] $end
$var reg 8192 7 input_buffer_filename [8192:1] $end
$var reg 8192 8 instr_mem_filename [8192:1] $end
$var reg 32 9 num_cycles [32:1] $end
$var reg 33 : out_end_addr [32:0] $end
$var reg 33 ; out_start_addr [32:0] $end
$var integer 32 < outfile [31:0] $end
$var reg 8192 = output_buffer_filename [8192:1] $end
$var reg 15 > read_addr [14:0] $end
$var integer 32 ? read_input_buffer [31:0] $end
$var integer 32 @ read_instr_mem [31:0] $end
$var integer 32 A result [31:0] $end
$var reg 1 B rst_n $end
$var reg 8192 C test_result_filename [8192:1] $end
$var reg 32 D ul_command [31:0] $end
$var integer 32 E write_output_buffer [31:0] $end
$var integer 32 F write_test_result [31:0] $end
$scope module instr_mem $end
$var wire 14 G addr [13:0] $end
$var wire 1 H clk $end
$var wire 32 I din [31:0] $end
$var wire 1 J we $end
$var reg 32 K dout [31:0] $end
$upscope $end
$scope module input_buffer $end
$var wire 15 L addr [14:0] $end
$var wire 1 H clk $end
$var wire 32 M din [31:0] $end
$var wire 1 N we $end
$var reg 32 O dout [31:0] $end
$upscope $end
$scope module output_buffer $end
$var wire 15 P addr [14:0] $end
$var wire 1 H clk $end
$var wire 32 Q din [31:0] $end
$var wire 4 R we [3:0] $end
$var reg 32 S dout [31:0] $end
$scope begin column[0] $end
$upscope $end
$scope begin column[1] $end
$upscope $end
$scope begin column[2] $end
$upscope $end
$scope begin column[3] $end
$upscope $end
$upscope $end
$scope module ul $end
$var wire 1 T addr_cmd $end
$var wire 1 U addr_iobuf $end
$var wire 1 V addr_local $end
$var wire 1 W addr_status $end
$var wire 1 X addr_test $end
$var wire 1 H clk $end
$var wire 32 Y command [31:0] $end
$var wire 32 Z instr [31:0] $end
$var wire 32 [ instr_addr [31:0] $end
$var wire 32 \ mips_addr [31:0] $end
$var wire 32 ] mips_local_read_data [31:0] $end
$var wire 32 ^ mips_pc [31:0] $end
$var wire 32 _ mips_read_data [31:0] $end
$var wire 1 ` mips_read_en $end
$var wire 4 a mips_write_en [3:0] $end
$var wire 32 b read_addr_hi [31:0] $end
$var wire 32 c read_addr_lo [31:0] $end
$var wire 32 d read_data [31:0] $end
$var wire 16 e read_data_hi [15:0] $end
$var wire 16 f read_data_lo [15:0] $end
$var wire 1 g rst_n $end
$var wire 32 h status [31:0] $end
$var wire 32 i test [31:0] $end
$var wire 32 j write_addr_hi [31:0] $end
$var wire 32 k write_addr_lo [31:0] $end
$var wire 32 l write_data [31:0] $end
$var wire 16 m write_data_hi [15:0] $end
$var wire 16 n write_data_lo [15:0] $end
$var wire 2 o write_en_hi [1:0] $end
$var wire 2 p write_en_lo [1:0] $end
$var reg 32 q cmd_d [31:0] $end
$var reg 1 r read_cmd_d $end
$var reg 1 s read_iobuf_d $end
$var reg 32 t status_reg [31:0] $end
$var reg 32 u test_reg [31:0] $end
$scope module cpu $end
$var wire 32 v alu_op_x_ex [31:0] $end
$var wire 32 w alu_op_x_id [31:0] $end
$var wire 32 x alu_op_y_ex [31:0] $end
$var wire 32 y alu_op_y_id [31:0] $end
$var wire 1 z alu_op_y_zero_ex $end
$var wire 4 { alu_opcode_ex [3:0] $end
$var wire 4 | alu_opcode_id [3:0] $end
$var wire 1 } alu_overflow $end
$var wire 32 ~ alu_result_ex [31:0] $end
$var wire 32 !" alu_result_mem [31:0] $end
$var wire 32 "" alu_sc_result_ex [31:0] $end
$var wire 1 #" atomic_en $end
$var wire 1 H clk $end
$var wire 1 $" en $end
$var wire 1 %" en_if $end
$var wire 32 &" instr [31:0] $end
$var wire 32 '" instr_id [31:0] $end
$var wire 30 (" instr_number_id [29:0] $end
$var wire 32 )" instr_sav [31:0] $end
$var wire 32 *" jr_pc_id [31:0] $end
$var wire 1 +" jump_branch_id $end
$var wire 1 ," jump_reg_id $end
$var wire 1 -" jump_target_id $end
$var wire 32 ." mem_addr [31:0] $end
$var wire 1 /" mem_atomic_ex $end
$var wire 1 0" mem_atomic_id $end
$var wire 1 1" mem_byte_ex $end
$var wire 1 2" mem_byte_id $end
$var wire 1 3" mem_byte_mem $end
$var wire 32 4" mem_out [31:0] $end
$var wire 32 5" mem_read_data [31:0] $end
$var wire 32 6" mem_read_data_byte_extend [31:0] $end
$var wire 8 7" mem_read_data_byte_select [7:0] $end
$var wire 1 ` mem_read_en $end
$var wire 1 8" mem_read_ex $end
$var wire 1 9" mem_read_id $end
$var wire 1 :" mem_read_mem $end
$var wire 1 ;" mem_sc_ex $end
$var wire 1 <" mem_sc_id $end
$var wire 1 =" mem_sc_mask_id $end
$var wire 1 >" mem_signextend_ex $end
$var wire 1 ?" mem_signextend_id $end
$var wire 1 @" mem_signextend_mem $end
$var wire 1 A" mem_we_ex $end
$var wire 1 B" mem_we_id $end
$var wire 32 C" mem_write_data [31:0] $end
$var wire 32 D" mem_write_data_ex [31:0] $end
$var wire 32 E" mem_write_data_id [31:0] $end
$var wire 4 F" mem_write_en [3:0] $end
$var wire 1 G" movn_ex $end
$var wire 1 H" movn_id $end
$var wire 1 I" movz_ex $end
$var wire 1 J" movz_id $end
$var wire 32 K" pc [31:0] $end
$var wire 32 L" pc_id [31:0] $end
$var wire 32 M" pc_if [31:0] $end
$var wire 1 N" reg_we_cond_ex $end
$var wire 1 O" reg_we_ex $end
$var wire 1 P" reg_we_id $end
$var wire 1 Q" reg_we_mem $end
$var wire 1 R" reg_we_wb $end
$var wire 5 S" reg_write_addr_ex [4:0] $end
$var wire 5 T" reg_write_addr_id [4:0] $end
$var wire 5 U" reg_write_addr_mem [4:0] $end
$var wire 5 V" reg_write_addr_wb [4:0] $end
$var wire 32 W" reg_write_data_mem [31:0] $end
$var wire 32 X" reg_write_data_wb [31:0] $end
$var wire 5 Y" rs_addr_id [4:0] $end
$var wire 32 Z" rs_data_id [31:0] $end
$var wire 1 [" rst $end
$var wire 1 \" rst_id $end
$var wire 5 ]" rt_addr_id [4:0] $end
$var wire 32 ^" rt_data_id [31:0] $end
$var wire 32 _" sc_result [31:0] $end
$var wire 1 `" stall $end
$var wire 1 a" stall_r $end
$scope module if_stage $end
$var wire 32 b" b_addr [31:0] $end
$var wire 1 H clk $end
$var wire 1 %" en $end
$var wire 26 c" instr_id [25:0] $end
$var wire 32 d" j_addr [31:0] $end
$var wire 32 e" jr_pc [31:0] $end
$var wire 1 +" jump_branch $end
$var wire 1 ," jump_register $end
$var wire 1 -" jump_target $end
$var wire 32 f" pc [31:0] $end
$var wire 32 g" pc_id [31:0] $end
$var wire 32 h" pc_id_p4 [31:0] $end
$var wire 32 i" pc_next [31:0] $end
$var wire 1 [" rst $end
$scope module pc_reg $end
$var wire 1 H clk $end
$var wire 32 j" d [31:0] $end
$var wire 1 %" en $end
$var wire 1 [" r $end
$var reg 32 k" q [31:0] $end
$upscope $end
$upscope $end
$scope module pc_if2id $end
$var wire 1 H clk $end
$var wire 32 l" d [31:0] $end
$var wire 1 %" en $end
$var wire 1 [" r $end
$var reg 32 m" q [31:0] $end
$upscope $end
$scope module instr_sav_dff $end
$var wire 1 H clk $end
$var wire 32 n" d [31:0] $end
$var wire 1 $" en $end
$var wire 1 [" r $end
$var reg 32 o" q [31:0] $end
$upscope $end
$scope module stall_f_dff $end
$var wire 1 H clk $end
$var wire 1 `" d $end
$var wire 1 $" en $end
$var wire 1 [" r $end
$var reg 1 p" q $end
$upscope $end
$scope module d_stage $end
$var wire 32 q" alu_op_x [31:0] $end
$var wire 32 r" alu_op_y [31:0] $end
$var wire 32 s" alu_result_ex [31:0] $end
$var wire 1 /" atomic_ex $end
$var wire 1 0" atomic_id $end
$var wire 1 t" forward_rs_alu $end
$var wire 1 u" forward_rs_mem $end
$var wire 1 v" forward_rt_alu $end
$var wire 1 w" forward_rt_mem $end
$var wire 6 x" funct [5:0] $end
$var wire 32 y" imm [31:0] $end
$var wire 32 z" imm_sign_extend [31:0] $end
$var wire 32 {" imm_upper [31:0] $end
$var wire 32 |" imm_zero_extend [31:0] $end
$var wire 16 }" immediate [15:0] $end
$var wire 32 ~" instr [31:0] $end
$var wire 1 !# isALUImm $end
$var wire 1 "# isBEQ $end
$var wire 1 ## isBGEZAL $end
$var wire 1 $# isBGEZNL $end
$var wire 1 %# isBGTZ $end
$var wire 1 &# isBLEZ $end
$var wire 1 '# isBLTZAL $end
$var wire 1 (# isBLTZNL $end
$var wire 1 )# isBNE $end
$var wire 1 *# isBranchLink $end
$var wire 1 +# isEqual $end
$var wire 1 ,# isJ $end
$var wire 1 -# isJAL $end
$var wire 1 .# isJALR $end
$var wire 1 /# isJR $end
$var wire 1 0# isLTEZ $end
$var wire 1 1# isLTZ $end
$var wire 1 2# isLUI $end
$var wire 1 3# isSLL $end
$var wire 1 4# isSLLV $end
$var wire 1 5# isSRA $end
$var wire 1 6# isSRAV $end
$var wire 1 7# isSRL $end
$var wire 1 8# isSRLV $end
$var wire 1 9# isShift $end
$var wire 1 :# isShiftImm $end
$var wire 32 ;# jr_pc [31:0] $end
$var wire 1 +" jump_branch $end
$var wire 1 ," jump_reg $end
$var wire 1 -" jump_target $end
$var wire 1 2" mem_byte $end
$var wire 1 9" mem_read $end
$var wire 1 8" mem_read_ex $end
$var wire 1 <" mem_sc_id $end
$var wire 1 =" mem_sc_mask_id $end
$var wire 1 ?" mem_signextend $end
$var wire 1 B" mem_we $end
$var wire 32 <# mem_write_data [31:0] $end
$var wire 1 H" movn $end
$var wire 1 J" movz $end
$var wire 6 =# op [5:0] $end
$var wire 32 ># pc [31:0] $end
$var wire 5 ?# rd_addr [4:0] $end
$var wire 1 @# read_from_rs $end
$var wire 1 A# read_from_rt $end
$var wire 1 P" reg_we $end
$var wire 1 O" reg_we_ex $end
$var wire 1 Q" reg_we_mem $end
$var wire 5 B# reg_write_addr [4:0] $end
$var wire 5 C# reg_write_addr_ex [4:0] $end
$var wire 5 D# reg_write_addr_mem [4:0] $end
$var wire 32 E# reg_write_data_mem [31:0] $end
$var wire 5 F# rs_addr [4:0] $end
$var wire 32 G# rs_data [31:0] $end
$var wire 32 H# rs_data_in [31:0] $end
$var wire 32 I# rs_data_signed [31:0] $end
$var wire 1 J# rs_mem_dependency $end
$var wire 5 K# rt_addr [4:0] $end
$var wire 32 L# rt_data [31:0] $end
$var wire 32 M# rt_data_in [31:0] $end
$var wire 1 N# rt_mem_dependency $end
$var wire 5 O# shamt [4:0] $end
$var wire 32 P# shift_amount [31:0] $end
$var wire 1 `" stall $end
$var wire 1 Q# use_imm $end
$var reg 4 R# alu_opcode [3:0] $end
$upscope $end
$scope module atomic $end
$var wire 1 [" ar $end
$var wire 1 H clk $end
$var wire 1 0" d $end
$var wire 1 #" en $end
$var wire 1 \" r $end
$var reg 1 S# q $end
$upscope $end
$scope module sc $end
$var wire 1 [" ar $end
$var wire 1 H clk $end
$var wire 1 <" d $end
$var wire 1 $" en $end
$var wire 1 \" r $end
$var reg 1 T# q $end
$upscope $end
$scope module alu_op_x_id2ex $end
$var wire 1 [" ar $end
$var wire 1 H clk $end
$var wire 32 U# d [31:0] $end
$var wire 1 $" en $end
$var wire 1 \" r $end
$var reg 32 V# q [31:0] $end
$upscope $end
$scope module alu_op_y_id2ex $end
$var wire 1 [" ar $end
$var wire 1 H clk $end
$var wire 32 W# d [31:0] $end
$var wire 1 $" en $end
$var wire 1 \" r $end
$var reg 32 X# q [31:0] $end
$upscope $end
$scope module alu_opcode_id2ex $end
$var wire 1 [" ar $end
$var wire 1 H clk $end
$var wire 4 Y# d [3:0] $end
$var wire 1 $" en $end
$var wire 1 \" r $end
$var reg 4 Z# q [3:0] $end
$upscope $end
$scope module movn $end
$var wire 1 [" ar $end
$var wire 1 H clk $end
$var wire 1 H" d $end
$var wire 1 $" en $end
$var wire 1 \" r $end
$var reg 1 [# q $end
$upscope $end
$scope module movz $end
$var wire 1 [" ar $end
$var wire 1 H clk $end
$var wire 1 J" d $end
$var wire 1 $" en $end
$var wire 1 \" r $end
$var reg 1 \# q $end
$upscope $end
$scope module mem_write_data_id2ex $end
$var wire 1 [" ar $end
$var wire 1 H clk $end
$var wire 32 ]# d [31:0] $end
$var wire 1 $" en $end
$var wire 1 \" r $end
$var reg 32 ^# q [31:0] $end
$upscope $end
$scope module mem_we_id2ex $end
$var wire 1 [" ar $end
$var wire 1 H clk $end
$var wire 1 _# d $end
$var wire 1 $" en $end
$var wire 1 \" r $end
$var reg 1 `# q $end
$upscope $end
$scope module mem_read_id2ex $end
$var wire 1 [" ar $end
$var wire 1 H clk $end
$var wire 1 9" d $end
$var wire 1 $" en $end
$var wire 1 \" r $end
$var reg 1 a# q $end
$upscope $end
$scope module mem_byte_id2ex $end
$var wire 1 [" ar $end
$var wire 1 H clk $end
$var wire 1 2" d $end
$var wire 1 $" en $end
$var wire 1 \" r $end
$var reg 1 b# q $end
$upscope $end
$scope module mem_signextend_id2ex $end
$var wire 1 [" ar $end
$var wire 1 H clk $end
$var wire 1 ?" d $end
$var wire 1 $" en $end
$var wire 1 \" r $end
$var reg 1 c# q $end
$upscope $end
$scope module reg_write_addr_id2ex $end
$var wire 1 [" ar $end
$var wire 1 H clk $end
$var wire 5 d# d [4:0] $end
$var wire 1 $" en $end
$var wire 1 \" r $end
$var reg 5 e# q [4:0] $end
$upscope $end
$scope module reg_we_id2ex $end
$var wire 1 [" ar $end
$var wire 1 H clk $end
$var wire 1 P" d $end
$var wire 1 $" en $end
$var wire 1 \" r $end
$var reg 1 f# q $end
$upscope $end
$scope module x_stage $end
$var wire 1 g# add_check $end
$var wire 1 h# add_neg_over $end
$var wire 1 i# add_pos_over $end
$var wire 1 j# alu_neg $end
$var wire 32 k# alu_op_x [31:0] $end
$var wire 32 l# alu_op_x_signed [31:0] $end
$var wire 32 m# alu_op_y [31:0] $end
$var wire 32 n# alu_op_y_signed [31:0] $end
$var wire 1 z alu_op_y_zero $end
$var wire 4 o# alu_opcode [3:0] $end
$var wire 1 } alu_overflow $end
$var wire 1 p# sub_check $end
$var wire 1 q# sub_neg_over $end
$var wire 1 r# sub_pos_over $end
$var wire 1 s# x_neg $end
$var wire 1 t# y_neg $end
$var reg 32 u# alu_result [31:0] $end
$upscope $end
$scope module alu_result_ex2mem $end
$var wire 1 H clk $end
$var wire 32 v# d [31:0] $end
$var wire 1 $" en $end
$var wire 1 [" r $end
$var reg 32 w# q [31:0] $end
$upscope $end
$scope module mem_read_ex2mem $end
$var wire 1 H clk $end
$var wire 1 8" d $end
$var wire 1 $" en $end
$var wire 1 [" r $end
$var reg 1 x# q $end
$upscope $end
$scope module mem_byte_ex2mem $end
$var wire 1 H clk $end
$var wire 1 1" d $end
$var wire 1 $" en $end
$var wire 1 [" r $end
$var reg 1 y# q $end
$upscope $end
$scope module mem_signextend_ex2mem $end
$var wire 1 H clk $end
$var wire 1 >" d $end
$var wire 1 $" en $end
$var wire 1 [" r $end
$var reg 1 z# q $end
$upscope $end
$scope module reg_write_addr_ex2mem $end
$var wire 1 H clk $end
$var wire 5 {# d [4:0] $end
$var wire 1 $" en $end
$var wire 1 [" r $end
$var reg 5 |# q [4:0] $end
$upscope $end
$scope module reg_we_ex2mem $end
$var wire 1 H clk $end
$var wire 1 O" d $end
$var wire 1 $" en $end
$var wire 1 [" r $end
$var reg 1 }# q $end
$upscope $end
$scope module reg_write_data_mem2wb $end
$var wire 1 H clk $end
$var wire 32 ~# d [31:0] $end
$var wire 1 $" en $end
$var wire 1 [" r $end
$var reg 32 !$ q [31:0] $end
$upscope $end
$scope module reg_write_addr_mem2wb $end
$var wire 1 H clk $end
$var wire 5 "$ d [4:0] $end
$var wire 1 $" en $end
$var wire 1 [" r $end
$var reg 5 #$ q [4:0] $end
$upscope $end
$scope module reg_we_mem2wb $end
$var wire 1 H clk $end
$var wire 1 Q" d $end
$var wire 1 $" en $end
$var wire 1 [" r $end
$var reg 1 $$ q $end
$upscope $end
$scope module w_stage $end
$var wire 1 H clk $end
$var wire 1 $" en $end
$var wire 1 R" reg_we $end
$var wire 5 %$ reg_write_addr [4:0] $end
$var wire 32 &$ reg_write_data [31:0] $end
$var wire 5 '$ rs_addr [4:0] $end
$var wire 32 ($ rs_data [31:0] $end
$var wire 5 )$ rt_addr [4:0] $end
$var wire 32 *$ rt_data [31:0] $end
$upscope $end
$upscope $end
$scope module mips_local_store $end
$var wire 12 +$ addr [11:0] $end
$var wire 1 H clk $end
$var wire 32 ,$ din [31:0] $end
$var wire 4 -$ we [3:0] $end
$var reg 32 .$ dout [31:0] $end
$scope begin column[0] $end
$upscope $end
$scope begin column[1] $end
$upscope $end
$scope begin column[2] $end
$upscope $end
$scope begin column[3] $end
$upscope $end
$upscope $end
$upscope $end
$upscope $end
$enddefinitions $end
#0
$dumpvars
bx .$
b0 -$
b0 ,$
b0 +$
bx *$
bx )$
bx ($
bx '$
b0 &$
b0 %$
0$$
b0 #$
b0 "$
b0 !$
b0 ~#
0}#
b0 |#
b0 {#
0z#
0y#
0x#
b0 w#
b0 v#
b0 u#
0t#
0s#
0r#
0q#
0p#
b0 o#
b0 n#
b0 m#
b0 l#
b0 k#
0j#
0i#
0h#
0g#
0f#
b0 e#
bx d#
0c#
0b#
0a#
0`#
x_#
b0 ^#
bx ]#
0\#
0[#
b0 Z#
b1101 Y#
b0 X#
bx W#
b0 V#
bx U#
0T#
0S#
b1101 R#
xQ#
b0xxxxx P#
bx O#
0N#
bx M#
bx L#
bx K#
0J#
bx I#
bx H#
bx G#
bx F#
b0 E#
b0 D#
b0 C#
bx B#
xA#
x@#
bx ?#
b0 >#
bx =#
bx <#
bx ;#
x:#
x9#
x8#
x7#
x6#
x5#
x4#
x3#
x2#
x1#
x0#
x/#
x.#
x-#
x,#
x+#
x*#
x)#
x(#
x'#
x&#
x%#
x$#
x##
x"#
x!#
bx ~"
bx }"
b0xxxxxxxxxxxxxxxx |"
bx0000000000000000 {"
bx z"
bx y"
bx x"
0w"
0v"
0u"
0t"
b0 s"
bx r"
bx q"
0p"
b0 o"
bx n"
b0 m"
b0 l"
b0 k"
bx j"
bx i"
b100 h"
b0 g"
b0 f"
bx e"
b0xxxxxxxxxxxxxxxxxxxxxxxxxx00 d"
bx c"
bx b"
0a"
0`"
b0 _"
bx ^"
bx ]"
0\"
0["
bx Z"
bx Y"
b0 X"
b0 W"
b0 V"
b0 U"
bx T"
b0 S"
0R"
0Q"
xP"
0O"
0N"
b0 M"
b0 L"
b0 K"
xJ"
0I"
xH"
0G"
b0 F"
bx E"
b0 D"
b0 C"
xB"
0A"
0@"
x?"
0>"
0="
x<"
0;"
0:"
x9"
08"
bx 7"
b0xxxxxxxx 6"
bx 5"
bx 4"
03"
x2"
01"
00"
0/"
b0 ."
x-"
x,"
x+"
bx *"
b0 )"
b0 ("
bx '"
bx &"
1%"
1$"
x#"
b0 ""
b0 !"
b0 ~
0}
b1101 |
b0 {
1z
bx y
b0 x
bx w
b0 v
bx u
bx t
xs
xr
bx q
b0 p
b0 o
b0 n
b0 m
b0 l
b0 k
b0 j
bx i
bx h
0g
bx f
bx e
bx d
b0 c
b0 b
b0 a
0`
bx _
b0 ^
bx ]
b0 \
b0 [
bx Z
b0xxxxxxxxxxxxxxxxxxxx10 Y
0X
0W
1V
0U
0T
bx S
b0 R
b0 Q
b0 P
bx O
0N
b0 M
b0 L
bx K
0J
b0 I
0H
b0 G
b1 F
b0 E
b0xxxxxxxxxxxxxxxxxxxx10 D
b1110100011001010111001101110100011100110010111101101010001011110111010001100101011100110111010000101110011100100110010101110011011101010110110001110100 C
0B
b1 A
b1 @
b0 ?
b0 >
bx =
bx <
b0 ;
b100000000000000000 :
b1111101000 9
b11101000110010101110011011101000111001100101111011010100010111101100010011101010110100101101100011001000010111101100001011100000111000000101110011010000110010101111000 8
bx 7
bx 6
bx 5
bx 4
b1110100011001010111001101110100011100110010111101101010001011110111001101110100011100100110010101100001011011010111011101100001011101100110010100101110011101100110001101100100 3
b1 2
b0 1
00
b0 /
b0 .
b0 -
b0 ,
b0 +
b0 *
bx )
bx (
bx '
b0 &
b0 %
bx $
b0 #
b0 "
bx !
$end
#5000
09#
b0 P#
b0 w
b0 q"
b0 U#
b100 i"
b100 j"
b0 G#
b0 I#
01#
10#
b0 *"
b0 e"
b0 ;#
0:#
0#"
0+"
0*#
b10000000000000100000000000000000 y
b10000000000000100000000000000000 r"
b10000000000000100000000000000000 W#
1P"
0_#
b0 Z"
b0 H#
b0 ($
0$#
0##
0%#
0&#
0(#
0'#
b10000 T"
b10000 B#
b10000 d#
0.#
0,"
0/#
03#
07#
05#
04#
08#
06#
b1100 R#
b1100 |
b1100 Y#
b10000000000000100000000000000000 y"
b100000000000001100 b"
0"#
0)#
0,#
0-"
0-#
1Q#
0@#
0A#
12#
0!#
0B"
09"
02"
1?"
0<"
b1111 =#
b0 Y"
b0 F#
b0 '$
b10000 ]"
b10000 K#
b10000 )$
b10000 ?#
b0 O#
0H"
0J"
b10 x"
b1000000000000010 |"
b11111111111111111000000000000010 z"
b10000000000000100000000000000000 {"
b1000000000000010 }"
b100001000000000000010 c"
b10000100000000000001000 d"
b111100000100001000000000000010 '"
b111100000100001000000000000010 ~"
b111100000100001000000000000010 K
b111100000100001000000000000010 $
b111100000100001000000000000010 Z
b111100000100001000000000000010 &"
b111100000100001000000000000010 n"
bx S
bx .$
b0 u
b0 )
b0 i
b0 t
b0 (
b0 h
0s
0r
b0 q
10
1H
#10000
00
0H
#15000
bx .$
bx S
10
1H
#20000
1["
00
0H
b0xxxxxxxxxxxxxxxxxxxx00 D
b0xxxxxxxxxxxxxxxxxxxx00 Y
1B
1g
#25000
0V
b1000 i"
b1000 j"
0+#
b10000000000000100000000000000000 L#
b10000000000000100000000000000000 E"
b10000000000000100000000000000000 <#
b10000000000000100000000000000000 ]#
bx ,
bx m
bx +
bx Q
bx -
bx n
0i#
1r#
1j#
b10000000000000100000000000000000 ""
b10000000000000100000000000000000 v#
b1 G
1O"
1v"
bx l
bx C"
bx ,$
1t#
b10000000000000100000000000000000 u#
b10000000000000100000000000000000 ~
b10000000000000100000000000000000 s"
1W
b10000000000000100000000000000000 \
b10000000000000100000000000000000 ."
b1 %
b1 [
bx S
bx .$
1f#
1N"
b10000 e#
b10000 S"
b10000 C#
b10000 {#
1c#
1>"
bx ^#
bx D"
b1100 Z#
b1100 {
b1100 o#
b10000000000000100000000000000000 X#
b10000000000000100000000000000000 n#
0z
b10000000000000100000000000000000 x
b10000000000000100000000000000000 m#
b111100000100001000000000000010 o"
b111100000100001000000000000010 )"
b100 k"
b100 M"
b100 f"
b100 l"
b100 ^
b100 K"
10
1H
#30000
00
0H
b1111100111 1
b0xxxxxxxxxxxxxxxxxxxx01 D
b0xxxxxxxxxxxxxxxxxxxx01 Y
#35000
x+#
bx L#
bx E"
bx <#
bx ]#
b1 y
b1 r"
b1 W#
b10001 T"
b10001 B#
b10001 d#
b11 R#
b11 |
b11 Y#
b1 y"
b1100 i"
b1100 j"
1@#
02#
1!#
b1101 =#
0v"
b10001 ]"
b10001 K#
b10001 )$
b0 ?#
b1 x"
b1 |"
b1 z"
b10000000000000000 {"
b1 }"
b100010000000000000001 c"
b10001000000000000000100 d"
b10 G
b1000000000000010 ,
b1000000000000010 m
b10000000000000100000000000000000 +
b10000000000000100000000000000000 Q
b0 -
b0 n
b110100000100010000000000000001 '"
b110100000100010000000000000001 ~"
b10 %
b10 [
b1 ("
b10000000000000100000000000000000 l
b10000000000000100000000000000000 C"
b10000000000000100000000000000000 ,$
b10000000000000100000000000000000 W"
b10000000000000100000000000000000 E#
b10000000000000100000000000000000 ~#
bx 6"
bx .$
bx S
b110100000100010000000000000001 K
b110100000100010000000000000001 $
b110100000100010000000000000001 Z
b110100000100010000000000000001 &"
b110100000100010000000000000001 n"
b1000 k"
b1000 M"
b1000 f"
b1000 l"
b1000 ^
b1000 K"
b100 m"
b1100 b"
b1000 h"
b100 L"
b100 g"
b100 >#
b10000000000000100000000000000000 ^#
b10000000000000100000000000000000 D"
b10000000000000100000000000000000 w#
b10000000000000100000000000000000 !"
1z#
1@"
b10000 |#
0w"
b10000 U"
b10000 D#
b10000 "$
1}#
1Q"
10
1H
#40000
00
0H
b1111100110 1
#45000
b1010 y
b1010 r"
b1010 W#
b1010 y"
b0 T"
b0 B#
b0 d#
b0 ^"
b0 M#
b0 *$
b1111 R#
b1111 |
b1111 Y#
1V
b101000 i"
b101000 j"
0P"
1,#
0@#
1-"
0A#
0!#
b10 =#
b0 ]"
b0 K#
b0 )$
b1010 x"
b1010 |"
b1010 z"
b10100000000000000000 {"
b1010 }"
b1010 c"
b101000 d"
bx ,
bx m
bx +
bx Q
bx -
bx n
0j#
b1 ""
b1 v#
b11 G
b1000000000000000000000001010 '"
b1000000000000000000000001010 ~"
1+#
b0 L#
b0 E"
b0 <#
b0 ]#
bx l
bx C"
bx ,$
0r#
0t#
b1 u#
b1 ~
b1 s"
0U
0W
b1 \
b1 ."
b10 ("
b11 %
b11 [
b1000000000000000000000001010 K
b1000000000000000000000001010 $
b1000000000000000000000001010 Z
b1000000000000000000000001010 &"
b1000000000000000000000001010 n"
bx S
bx .$
1$$
1R"
b10000 #$
b10000 V"
b10000 %$
b10000000000000100000000000000000 !$
b10000000000000100000000000000000 X"
b10000000000000100000000000000000 &$
b10001 e#
0v"
b10001 S"
b10001 C#
b10001 {#
bx ^#
bx D"
b11 Z#
b11 {
b11 o#
b1 X#
b1 n#
b1 x
b1 m#
b110100000100010000000000000001 o"
b110100000100010000000000000001 )"
b1000 m"
b110100 b"
b1100 h"
b1000 L"
b1000 g"
b1000 >#
b1100 k"
b1100 M"
b1100 f"
b1100 l"
b1100 ^
b1100 K"
10
1H
#50000
00
0H
b1111100101 1
#55000
x+#
bx L#
bx E"
bx <#
bx ]#
b0 y
b0 r"
b0 W#
b0 y"
b10 T"
b10 B#
b10 d#
bx ^"
bx M#
bx *$
b11 R#
b11 |
b11 Y#
b101100 i"
b101100 j"
1P"
0,#
1@#
0-"
1!#
b1101 =#
b10 ]"
b10 K#
b10 )$
b0 x"
b0 |"
b0 z"
b0 {"
b0 }"
b100000000000000000 c"
b10000000000000000000 d"
b1010 G
b0 ""
b0 v#
b0 ,
b0 m
b0 +
b0 Q
b0 -
b0 n
b110100000000100000000000000000 '"
b110100000000100000000000000000 ~"
b1010 %
b1010 [
b11 ("
b0 u#
b0 ~
b0 s"
b0 \
b0 ."
b0 l
b0 C"
b0 ,$
0O"
b1 W"
b1 E#
b1 ~#
bx .$
bx S
b110100000000100000000000000000 K
b110100000000100000000000000000 $
b110100000000100000000000000000 Z
b110100000000100000000000000000 &"
b110100000000100000000000000000 n"
b101000 k"
b101000 M"
b101000 f"
b101000 l"
b101000 ^
b101000 K"
b1100 m"
b10000 b"
b10000 h"
b1100 L"
b1100 g"
b1100 >#
b1000000000000000000000001010 o"
b1000000000000000000000001010 )"
b1010 X#
b1010 n#
b1010 x
b1010 m#
b1111 Z#
b1111 {
b1111 o#
b0 ^#
b0 D"
b0 e#
b0 S"
b0 C#
b0 {#
0f#
0N"
b1 w#
b1 !"
b10001 |#
b10001 U"
b10001 D#
b10001 "$
10
1H
#60000
00
0H
b1111100100 1
#65000
b100 y
b100 r"
b100 W#
b100 y"
b0 T"
b0 B#
b0 d#
b0 ^"
b0 M#
b0 *$
b1111 R#
b1111 |
b1111 Y#
b10000 i"
b10000 j"
0P"
1,#
0@#
1-"
0A#
0!#
b10 =#
b0 ]"
b0 K#
b0 )$
b100 x"
b100 |"
b100 z"
b1000000000000000000 {"
b100 }"
b100 c"
b10000 d"
1+#
b0 L#
b0 E"
b0 <#
b0 ]#
bx ,
bx m
bx +
bx Q
bx -
bx n
b1011 G
b1000000000000000000000000100 '"
b1000000000000000000000000100 ~"
b0 W"
b0 E#
b0 ~#
1O"
0v"
bx l
bx C"
bx ,$
b1010 ("
b1011 %
b1011 [
b1000000000000000000000000100 K
b1000000000000000000000000100 $
b1000000000000000000000000100 Z
b1000000000000000000000000100 &"
b1000000000000000000000000100 n"
bx S
bx .$
b10001 #$
b10001 V"
b10001 %$
b1 !$
b1 X"
b1 &$
0}#
0Q"
b0 |#
b0 U"
b0 D#
b0 "$
b0 w#
b0 !"
1f#
1N"
b10 e#
b10 S"
b10 C#
b10 {#
bx ^#
bx D"
b11 Z#
b11 {
b11 o#
b0 X#
b0 n#
1z
b0 x
b0 m#
b110100000000100000000000000000 o"
b110100000000100000000000000000 )"
b101000 m"
b111100 b"
b101100 h"
b101000 L"
b101000 g"
b101000 >#
b101100 k"
b101100 M"
b101100 f"
b101100 l"
b101100 ^
b101100 K"
10
1H
#70000
00
0H
b1111100011 1
